[{
  "name": "qcm1", "questionAnswers": {
    "1":{
      "libelle": "Quel age avez vous ?", "number": 1, "questionAnswers": {
        "1": {
          "libelle": "Moins de 18 ans",
          "trueOrFalse": true
        },
        "2": {
          "libelle": "Plus de 18 ans",
          "trueOrFalse": false
        }
      }
    }
  }
}]
